…
Because the endpoint is explicitly experimental, this request is not run
when the vignette is built or during `R CMD check`. The repository exercises
it separately in a scheduled, non-blocking live smoke check.

## 2. Discover collections and parameters

`edr_collections()` lists every EDR collection the service serves.


``` r
collections <- edr_collections(client)
collections[, c("id", "title", "data_queries")]
#> # A tibble: 37 × 3
#>    id                 title                                         data_queries
#>    <chr>              <chr>                                         <list>
#>  1 rise-edr           USBR Reclamation Information Sharing Environ… <chr [4]>
#>  2 snotel-edr         USDA Snowpack Telemetry Network (SNOTEL)      <chr [4]>
#>  3 awdb-forecasts-edr USDA Air and Water Database (AWDB) Forecasts  <chr [4]>
#>  4 snotel-huc06-means USDA Snotel Snow Water Equivalent Aggregated… <NULL>
#>  5 usace-edr          USACE Access2Water API                        <chr [4]>
#>  6 noaa-qpf-day-1     NOAA Weather Prediction Center Quantitative … <NULL>
#>  7 noaa-qpf-day-2     NOAA Weather Prediction Center Quantitative … <NULL>
#>  8 noaa-qpf-day-3     NOAA Weather Prediction Center Quantitative … <NULL>
#>  9 noaa-qpf-day-4-5   NOAA Weather Prediction Center Quantitative … <NULL>
#> 10 noaa-qpf-day-6-7   NOAA Weather Prediction Center Quantitative … <NULL>
#> # ℹ 27 more rows
```
…
