…
The client just stores connection settings (base URL, user agent,
timeout, retry policy). Pass `verbose = TRUE` to echo every request
URL, or `headers =` to attach auth tokens.

## 2. Discover collections and parameters

`edr_collections()` lists every EDR collection the service serves.


``` r
collections <- edr_collections(client)
collections[, c("id", "title", "data_queries")]
#> # A tibble: 35 × 3
#>    id                 title                                         data_queries
#>    <chr>              <chr>                                         <list>      
#>  1 rise-edr           USBR Reclamation Information Sharing Environ… <chr [4]>   
#>  2 snotel-edr         USDA Snowpack Telemetry Network (SNOTEL)      <chr [4]>   
#>  3 awdb-forecasts-edr USDA Air and Water Database (AWDB) Forecasts  <chr [4]>   
#>  4 snotel-huc06-means USDA Snotel Snow Water Equivalent Aggregated… <NULL>      
#>  5 usace-edr          USACE Access2Water API                        <chr [4]>   
#>  6 noaa-qpf-day-1     NOAA Weather Prediction Center Quantitative … <NULL>      
#>  7 noaa-qpf-day-2     NOAA Weather Prediction Center Quantitative … <NULL>      
#>  8 noaa-qpf-day-3     NOAA Weather Prediction Center Quantitative … <NULL>      
#>  9 noaa-qpf-day-4-5   NOAA Weather Prediction Center Quantitative … <NULL>      
#> 10 noaa-qpf-day-6-7   NOAA Weather Prediction Center Quantitative … <NULL>      
#> # ℹ 25 more rows
```
…
``` r
prism <- edr_cube(
  client, "usgs-prism",
  bbox           = c(-112.6, 36.7, -112.2, 37.1),
  datetime       = "2023-01-01/2023-02-28",
  parameter_name = c("ppt", "tmx")
)

prism_grid <- covjson_to_tibble(prism)
prism_grid[, c("parameter", "datetime", "x", "y", "value")]
#> # A tibble: 324 x 5
#>   parameter datetime                x     y value
#>   <chr>     <dttm>              <dbl> <dbl> <dbl>
#> 1 ppt       2023-01-01 00:00:00 -113.  37.1  116.
#> 2 ppt       2023-01-01 00:00:00 -113.  37.1  120.
#> 3 ppt       2023-01-01 00:00:00 -112.  37.1  131.
#> 4 ppt       2023-01-01 00:00:00 -112.  37.1  126.
#> 5 ppt       2023-01-01 00:00:00 -112.  37.1  115.
#> # i 319 more rows
…
